Introduction to ggplot2: Turkish Renewable Energy Production Data
…
Note: We will use the same data and preparation process as the dplyr tutorial. We will also use some dplyr functionality as well. So, it is recommended to have an understanding of dplyr first.

Fundamental Plots

We are going to use all these elements in plot examples.

Scatter Plot

We use geom_point for scatter plot. Lets create a scatterplot of licensed wind versus unlicensed solar production in May, 2020 and between hours 10 and 17. Lets first create our data set plot_df1.

plot_df1 <- raw_df %>% filter(dt >= "2020-05-01" & dt < "2020-06-01" & lubridate::hour(dt) >= 10 & lubridate::hour(dt) <= 17) %>% transmute(hour_of_day = lubridate::hour(dt),wind_lic,sun_ul)

print(plot_df1)

## # A tibble: 248 x 3
##   hour_of_day wind_lic sun_ul
##         <int>    <dbl>  <dbl>
## 1          17    2055.  1442.
## 2          16    2036.  2523.
## 3          15    1875.  3402.
## #  with 245 more rows
…
We could have defined the aesthetics in the first object. ggplot2 is quite flexible about it.

ggplot(plot_df1,aes(x = wind_lic, y = sun_ul, color=as.character(hour_of_day))) + geom_point()

Line Plot

Time series can be beautifully represented with a line plot. ggplot2 has special properties and aggregations for date-time columns.

plot_df2 <- raw_df %>% filter(dt >= "2020-05-01" & dt < "2020-06-01") %>% select(dt,wind_lic,sun_ul) 

print(plot_df2)

## # A tibble: 744 x 3
##   dt                  wind_lic sun_ul
##   <dttm>                 <dbl>  <dbl>
## 1 2020-05-31 23:00:00    1434. 0.0582
## 2 2020-05-31 22:00:00    1577. 0.032 
## 3 2020-05-31 21:00:00    1858. 0.0335
## #  with 741 more rows
…
Bar Chart

You can create bar charts in a very similar manner. First, lets create a data set where May 2020s production is used and production type is differentiated as Licensed and Unlicensed in a different column.

plot_df3 <- raw_df %>% filter(dt >= "2020-05-01" & dt < "2020-06-01") %>% summarise(across(-dt,sum)) %>% pivot_longer(.,everything()) %>% mutate(type = ifelse( grepl("_lic+$",name),"Licensed","Unlicensed"))

print(plot_df3)

## # A tibble: 16 x 3
##   name              value type    
##   <chr>             <dbl> <chr>   
## 1 wind_lic       1346260. Licensed
## 2 geothermal_lic  654089. Licensed
## 3 biogas_lic       56839. Licensed
## #  with 13 more rows
…
